prn_no,first_name,middle_name,last_name,dob(DD-MM-YYYY),gender(m/f),allocated_email
14020541081,Abhijit,,Bhalekar,01-01-1990,M,abhijit.bhalekar@sitm.ac.in
14020541082,Abhilash,,Mende,01-01-1990,M,abhilash.mende@sitm.ac.in
14020541150,Abhinav,,Nirwan,01-01-1990,M,abhinav.nirwan@sitm.ac.in
14020541083,Abhinay,,Barsaiya,01-01-1990,M,abhinay.barsaiya@sitm.ac.in
14020541084,Abhishek,,Sharma,01-01-1990,M,abhishek.sharma@sitm.ac.in
14020541002,Ajinkya,,Kap,01-01-1990,M,ajinkya.kap@sitm.ac.in
14020541065,Akanksha,,Chaudhary,01-01-1990,M,akanksha.chaudhary@sitm.ac.in
14020541085,Akshara,,Chaudhary,01-01-1990,M,akshara.chaudhary@sitm.ac.in
14020541003,Alekhya,,Pochinapeddi,01-01-1990,M,alekhya.pochinapeddi@sitm.ac.in
14020541086,Anand,,Abhishek,01-01-1990,M,anand.abhishek@sitm.ac.in
14020541087,Anil,,Lade,01-01-1990,M,anil.lade@sitm.ac.in
14020541004,Aniruddha,,Banerjee,01-01-1990,M,aniruddha.banerjee@sitm.ac.in
14020541004,Aniruddha,,Maurya,01-01-1990,M,aniruddha.maurya@sitm.ac.in
14020541005,Anuja,,Sajeev,01-01-1990,M,anuja.sajeev@sitm.ac.in
14020541089,Anupriya,,Gautam,01-01-1990,M,anupriya.gautam@sitm.ac.in
14020541090,Anurag,,Khode,01-01-1990,M,anurag.khode@sitm.ac.in
14020541006,Anushiya,,Sood,01-01-1990,M,anushiya.sood@sitm.ac.in
14020541091,Aparna,,S,01-01-1990,M,aparna.s@sitm.ac.in
14020541007,Apurv,,Verma,01-01-1990,M,apurv.verma@sitm.ac.in
14020541008,Apurva,,Sharma,01-01-1990,M,apurva.sharma@sitm.ac.in
14020541092,Araaf,,Khan,01-01-1990,M,araaf.khan@sitm.ac.in
14020541093,Arjun,,G Padman,01-01-1990,M,arjun.gpadman@sitm.ac.in
14020541094,Atanu,,Adhikari,01-01-1990,M,atanu.adhikari@sitm.ac.in
14020541009,Badi,,Uzzaman,01-01-1990,M,badi.uzzaman@sitm.ac.in
14020541095,Bijoy,,Das,01-01-1990,M,bijoy.das@sitm.ac.in
14020541096,Chandradeep,,Mallick,01-01-1990,M,chandradeep.mallick@sitm.ac.in
14020541097,Danish,,Khan,01-01-1990,M,danish.khan@sitm.ac.in
14020541010,Davisha,,Verma,01-01-1990,M,davisha.verma@sitm.ac.in
14020541011,Debasreeta,,Chakrabarti,01-01-1990,M,debasreeta.chakrabarti@sitm.ac.in
14020541012,Dennis,,Marcell,01-01-1990,M,dennis.marcell@sitm.ac.in
14020541098,Devdutt,,Kulkarni,01-01-1990,M,devdutt.kulkarni@sitm.ac.in
14020541099,Dharmit,,Jhunjhunwala,01-01-1990,M,dharmit.jhunjhunwala@sitm.ac.in
14020541100,Dhatri,,Bhatt,01-01-1990,M,dhatri.bhatt@sitm.ac.in
14020541101,Dipen,,Sharma,01-01-1990,M,dipen.sharma@sitm.ac.in
14020541102,Dipti,,Chodnekar,01-01-1990,M,dipti.chodnekar@sitm.ac.in
14020541147,Gargi,,Modi,01-01-1990,M,gargi.modi@sitm.ac.in
14020541103,Garima,,Negi,01-01-1990,M,garima.negi@sitm.ac.in
14020541014,Gatha,,Kapadiya,01-01-1990,M,gatha.kapadiya@sitm.ac.in
14020541015,Gaurav,,Chauhan,01-01-1990,M,gaurav.chauhan@sitm.ac.in
14020541015,Gaurav,,Sethia,01-01-1990,M,gaurav.sethia@sitm.ac.in
14020541016,Gourav,,Mukherjee,01-01-1990,M,gourav.mukherjee@sitm.ac.in
14020541017,Harmanpreet,,Pall,01-01-1990,M,harmanpreet.pall@sitm.ac.in
14020541105,Jacob,,Bhabar,01-01-1990,M,jacob.bhabar@sitm.ac.in
14020541018,Jaskaran,,Singh,01-01-1990,M,jaskaran.singh@sitm.ac.in
14020541149,Jaspreet,,Singh,01-01-1990,M,jaspreet.singh@sitm.ac.in
14020541106,Jubin,,Prakash,01-01-1990,M,jubin.prakash@sitm.ac.in
14020541107,Kadambari,,K,01-01-1990,M,kadambari@sitm.ac.in
14020541020,Kalyani,,Mhatre,01-01-1990,M,kalyani.mhatre@sitm.ac.in
14020541021,Kanika,,Batra,01-01-1990,M,kanika.batra@sitm.ac.in
14020541022,Karishma,,Sondhi,01-01-1990,M,karishma.sondhi@sitm.ac.in
14020541023,Kartheek,,Chilamakur,01-01-1990,M,kartheek.Chilamakur@sitm.ac.in
14020541024,Kunal,,Dixit,01-01-1990,M,kunal.dixit@sitm.ac.in
14020541025,Kunjesh,,Mehta,01-01-1990,M,kunjesh.mehta@sitm.ac.in
14020541026,Labanya,,Chowdhury,01-01-1990,M,labanya.chowdhury@sitm.ac.in
14020541070,Madhurendra,,KumarMadhukar,01-01-1990,M,madhurendra.kumarmadhukar@sitm.ac.in
14020541027,Mahathi,,Keshav P,01-01-1990,M,mahathi.keshavp@sitm.ac.in
14020541028,Malay,,Maniyar,01-01-1990,M,malay.maniyar@sitm.ac.in
14020541108,Manoj,,Manojkumar,01-01-1990,M,manojkumar.manojkumar@sitm.ac.in
14020541109,Manu,,Sharma,01-01-1990,M,manu.sharma@sitm.ac.in
14020541110,Mayank,,Verma,01-01-1990,M,mayank.verma@sitm.ac.in
14020541029,Mayukh,,Sarkar,01-01-1990,M,mayukh.sarkar@sitm.ac.in
14020541030,Mayuri,,Savla,01-01-1990,M,mayuri.savla@sitm.ac.in
14020541111,Meenakshi,,R,01-01-1990,M,meenakshi.r@sitm.ac.in
14020541112,Mitika,,Sharma,01-01-1990,M,mitika.sharma@sitm.ac.in
14020541066,Mohit,,Nemani,01-01-1990,M,mohit.nemani@sitm.ac.in
14020541064,Nagendra,,Battala,01-01-1990,M,nagendra.battala@sitm.ac.in
14020541148,Navdeep,,Singh,01-01-1990,M,navdeep.singh@sitm.ac.in
14020541031,Neethi,,Nair,01-01-1990,M,neethi.nair@sitm.ac.in
14020541032,Neha,,Paswan,01-01-1990,M,neha.paswan@sitm.ac.in
14020541113,Niharika,,Singhai,01-01-1990,M,niharika.singhai@sitm.ac.in
14020541033,Nilesh,,Tayade,01-01-1990,M,nilesh.tayade@sitm.ac.in
14020541034,Nishant,,Thool,01-01-1990,M,nishant.thool@sitm.ac.in
14020541035,Nishith,,Mohanty,01-01-1990,M,nishith.mohanty@sitm.ac.in
14020541036,Nitish,,Vats,01-01-1990,M,nitish.vats@sitm.ac.in
14020541114,Nivedita,,Srivastava,01-01-1990,M,nivedita.srivastava@sitm.ac.in
14020541039,Noopur,,Shrivastava,01-01-1990,M,noopur.shrivastava@sitm.ac.in
14020541115,Pallam,,Keerthana,01-01-1990,M,pallam.keerthana@sitm.ac.in
14020541116,Parag,,Shukla,01-01-1990,M,parag.shukla@sitm.ac.in
14020541038,Paras,,M,01-01-1990,M,paras@sitm.ac.in
14020541117,Parth,,Vora,01-01-1990,M,parth.vora@sitm.ac.in
14020541118,Parvinder,,Singh,01-01-1990,M,parvinder.singh@sitm.ac.in
14020541040,Pooja,,Bharadiya,01-01-1990,M,pooja.bharadiya@sitm.ac.in
14020541040,Pooja,,Soni,01-01-1990,M,pooja.soni@sitm.ac.in
14020541119,Prachi,,Warkade,01-01-1990,M,prachi.warkade@sitm.ac.in
14020541120,Pragya,,Mishra,01-01-1990,M,pragya.mishra@sitm.ac.in
14020541042,Prakriti,,Gupta,01-01-1990,M,prakriti.gupta@sitm.ac.in
14020541121,Prashant,,Mishra,01-01-1990,M,prashant.mishra@sitm.ac.in
14020541068,Rahul,,R,01-01-1990,M,rahul@sitm.ac.in
14020541068,Rahul,,Gupta,01-01-1990,M,rahul.gupta@sitm.ac.in
14020541123,Rajat,,Arora,01-01-1990,M,rajat.arora@sitm.ac.in
14020541043,Ramkrishna,,Chomal,01-01-1990,M,ramkrishna.chomal@sitm.ac.in
14020541044,Raunak,,Shahare,01-01-1990,M,raunak.shahare@sitm.ac.in
14020541045,Rikita,,Sanil,01-01-1990,M,rikita.sanil@sitm.ac.in
14020541124,Ritik,,Bakshi,01-01-1990,M,ritik.bakshi@sitm.ac.in
14020541125,Ritwik,,Dhani,01-01-1990,M,ritwik.dhani@sitm.ac.in
14020541126,Rohan,,Egbert,01-01-1990,M,rohan.egbert@sitm.ac.in
14020541062,Rohit,,Nagare,01-01-1990,M,rohit.nagare@sitm.ac.in
14020541127,Rucha,,Upadhye,01-01-1990,M,rucha.upadhye@sitm.ac.in
14020541013,Ruchi,,Doshi,01-01-1990,M,ruchi.doshi@sitm.ac.in
14020541046,Ruhi,,Tarkas,01-01-1990,M,ruhi.tarkas@sitm.ac.in
14020541047,Rukmani,,Chockalingam,01-01-1990,M,rukmani.chockalingam@sitm.ac.in
14020541128,Rydma,,S,01-01-1990,M,rydma@sitm.ac.in
14020541130,Sagar,,Gajakosh,01-01-1990,M,sagar.gajakosh@sitm.ac.in
14020541131,Saksham,,Saxena,01-01-1990,M,saksham.saxena@sitm.ac.in
14020541132,Sakshm,,Vashist,01-01-1990,M,sakshm.vashist@sitm.ac.in
14020541069,Samarpit,,Chourasia,01-01-1990,M,samarpit.chourasia@sitm.ac.in
14020541019,Sandeep,,Sharma,01-01-1990,M,sandeep.sharma@sitm.ac.in
14020541133,Satyawrat,,Jamsandekar,01-01-1990,M,satyawrat.jamsandekar@sitm.ac.in
14020541134,Saurav,,Hora,01-01-1990,M,saurav.hora@sitm.ac.in
14020541048,Shalakha,,Borkar,01-01-1990,M,shalakha.borkar@sitm.ac.in
14020541049,Shirish,,Patel,01-01-1990,M,shirish.patel@sitm.ac.in
14020541050,Shivam,,Tyagi,01-01-1990,M,shivam.tyagi@sitm.ac.in
14020541146,Shobhit,,SINGH,01-01-1990,M,shobhit.singh@sitm.ac.in
14020541051,Shraddha,,Rangari,01-01-1990,M,shraddha.rangari@sitm.ac.in
14020541052,Shreya,,S,01-01-1990,M,shreya@sitm.ac.in
14020541052,Shreya,,Adhikari,01-01-1990,M,shreya.adhikari@sitm.ac.in
14020541135,Shreyas,,Vidwans,01-01-1990,M,shreyas.vidwans@sitm.ac.in
14020541054,Siddhant,,Parashar,01-01-1990,M,siddhant.parashar@sitm.ac.in
14020541136,Siddharth,,Kanwar,01-01-1990,M,siddharth.kanwar@sitm.ac.in
14020541137,Smit,,Vavadia,01-01-1990,M,smit.vavadia@sitm.ac.in
14020541063,Smitashree,,Das,01-01-1990,M,smitashree.das@sitm.ac.in
14020541138,Snehlata,,Pareek,01-01-1990,M,snehlata.pareek@sitm.ac.in
14020541067,Sonal,,Mishra,01-01-1990,M,sonal.mishra@sitm.ac.in
14020541129,Sonik,,Satapathy,01-01-1990,M,sonik.satapathy@sitm.ac.in
14020541055,Sourav,,Karmakar,01-01-1990,M,sourav.karmakar@sitm.ac.in
14020541037,Suhel,,Pathade,01-01-1990,M,suhel.pathade@sitm.ac.in
14020541056,Sumit,,Kaushik,01-01-1990,M,sumitkumar.kaushik@sitm.ac.in
14020541139,Sunayana,,Gupta,01-01-1990,M,sunayana.gupta@sitm.ac.in
14020541140,Sunu,,Sunny,01-01-1990,M,sunu.sunny@sitm.ac.in
14020541057,Tanvi,,Godbole,01-01-1990,M,tanvi.godbole@sitm.ac.in
14020541061,Tarun,,Kanade,01-01-1990,M,tarun.kanade@sitm.ac.in
14020541141,Tikesh,,Bodele,01-01-1990,M,tikesh.bodele@sitm.ac.in
14020541142,Udit,,Pandey,01-01-1990,M,udit.pandey@sitm.ac.in
14020541058,Ula,,Javed,01-01-1990,M,ula.javed@sitm.ac.in
14020541059,Utkarsh,,Nalgundwar,01-01-1990,M,utkarsh.nalgundwar@sitm.ac.in
14020541060,Vedant,,Singh,01-01-1990,M,vedant.singh@sitm.ac.in
14020541001,Vipul,,Shrivastawa,01-01-1990,M,vipulkumar.shrivastawa@sitm.ac.in
14020541144,Vishrant,,Shah,01-01-1990,M,vishrant.shah@sitm.ac.in
14020541031,Vivek,,Nair,01-01-1990,M,vivek.nair@sitm.ac.in
14020541129,Vsaipraneeth,,S,01-01-1990,M,vsaipraneeth.s@sitm.ac.in
